<define-tag pagetitle>DLA-2908-1 librecad</define-tag>
<define-tag report_date>2022-2-03</define-tag>
<define-tag secrefs>CVE-2021-45341 CVE-2021-45342 CVE-2021-45343 Bug#1004518</define-tag>
<define-tag packages>librecad</define-tag>
<define-tag isvulnerable>yes</define-tag>
<define-tag fixed>yes</define-tag>
<define-tag fixed-section>no</define-tag>

#use wml::debian::security

