<define-tag pagetitle>DSA-5033-1 fort-validator</define-tag>
<define-tag report_date>2021-12-30</define-tag>
<define-tag secrefs>CVE-2021-3907 CVE-2021-3909 CVE-2021-43173 CVE-2021-43114</define-tag>
<define-tag packages>fort-validator</define-tag>
<define-tag isvulnerable>yes</define-tag>
<define-tag fixed>yes</define-tag>
<define-tag fixed-section>no</define-tag>

#use wml::debian::security



</dl>
