<define-tag pagetitle>DLA-941-1 squirrelmail</define-tag>
<define-tag report_date>2017-5-15</define-tag>
<define-tag secrefs>CVE-2017-7692</define-tag>
<define-tag packages>squirrelmail</define-tag>
<define-tag isvulnerable>yes</define-tag>
<define-tag fixed>yes</define-tag>
<define-tag fixed-section>no</define-tag>

#use wml::debian::security

