<define-tag pagetitle>DLA-2275-1 ruby-rack</define-tag>
<define-tag report_date>2020-07-11</define-tag>
<define-tag secrefs>CVE-2020-8161 CVE-2020-8184 Bug#963477</define-tag>
<define-tag packages>ruby-rack</define-tag>
<define-tag isvulnerable>yes</define-tag>
<define-tag fixed>yes</define-tag>
<define-tag fixed-section>no</define-tag>

#use wml::debian::security

