<define-tag pagetitle>DLA-1547-1 libpdfbox-java</define-tag>
<define-tag report_date>2018-10-16</define-tag>
<define-tag secrefs>CVE-2018-11797 Bug##910390</define-tag>
<define-tag packages>libpdfbox-java</define-tag>
<define-tag isvulnerable>yes</define-tag>
<define-tag fixed>yes</define-tag>
<define-tag fixed-section>no</define-tag>

#use wml::debian::security

