<define-tag pagetitle>DLA-1364-1 openslp-dfsg</define-tag>
<define-tag report_date>2018-4-25</define-tag>
<define-tag secrefs>CVE-2017-17833</define-tag>
<define-tag packages>openslp-dfsg</define-tag>
<define-tag isvulnerable>yes</define-tag>
<define-tag fixed>yes</define-tag>
<define-tag fixed-section>no</define-tag>

#use wml::debian::security

