<define-tag pagetitle>DLA-1478-1 libextractor</define-tag>
<define-tag report_date>2018-8-26</define-tag>
<define-tag secrefs>CVE-2018-14346 CVE-2018-14347 Bug##904903 Bug##904905</define-tag>
<define-tag packages>libextractor</define-tag>
<define-tag isvulnerable>yes</define-tag>
<define-tag fixed>yes</define-tag>
<define-tag fixed-section>no</define-tag>

#use wml::debian::security

