<define-tag pagetitle>DLA-1477-1 libgit2</define-tag>
<define-tag report_date>2018-8-25</define-tag>
<define-tag secrefs>CVE-2018-10887 CVE-2018-10888 CVE-2018-15501</define-tag>
<define-tag packages>libgit2</define-tag>
<define-tag isvulnerable>yes</define-tag>
<define-tag fixed>yes</define-tag>
<define-tag fixed-section>no</define-tag>

#use wml::debian::security

