<define-tag pagetitle>DLA-1812-1 doxygen</define-tag>
<define-tag report_date>2019-06-01</define-tag>
<define-tag secrefs>CVE-2016-10245</define-tag>
<define-tag packages>doxygen</define-tag>
<define-tag isvulnerable>yes</define-tag>
<define-tag fixed>yes</define-tag>
<define-tag fixed-section>no</define-tag>

#use wml::debian::security

