<define-tag pagetitle>DLA-1901-1 dovecot</define-tag>
<define-tag report_date>2019-08-29</define-tag>
<define-tag secrefs>CVE-2019-11500</define-tag>
<define-tag packages>dovecot</define-tag>
<define-tag isvulnerable>yes</define-tag>
<define-tag fixed>yes</define-tag>
<define-tag fixed-section>no</define-tag>

#use wml::debian::security

