<define-tag pagetitle>DLA-1791-1 faad2</define-tag>
<define-tag report_date>2019-05-21</define-tag>
<define-tag secrefs>CVE-2018-20194 CVE-2018-20197 CVE-2018-20198 CVE-2018-20362</define-tag>
<define-tag packages>faad2</define-tag>
<define-tag isvulnerable>yes</define-tag>
<define-tag fixed>yes</define-tag>
<define-tag fixed-section>no</define-tag>

#use wml::debian::security

