<define-tag pagetitle>DLA-656-1 libdbd-mysql-perl</define-tag>
<define-tag report_date>2016-10-15</define-tag>
<define-tag secrefs>CVE-2016-1246</define-tag>
<define-tag packages>libdbd-mysql-perl</define-tag>
<define-tag isvulnerable>yes</define-tag>
<define-tag fixed>yes</define-tag>
<define-tag fixed-section>no</define-tag>

#use wml::debian::security

